<?xml version="1.0" encoding="UTF-8" standalone="no"?>
<!-- Created with Inkscape (http://www.inkscape.org/) -->

<svg
   xmlns:dc="http://purl.org/dc/elements/1.1/"
   xmlns:cc="http://creativecommons.org/ns#"
   xmlns:rdf="http://www.w3.org/1999/02/22-rdf-syntax-ns#"
   xmlns:svg="http://www.w3.org/2000/svg"
   xmlns="http://www.w3.org/2000/svg"
   xmlns:sodipodi="http://sodipodi.sourceforge.net/DTD/sodipodi-0.dtd"
   xmlns:inkscape="http://www.inkscape.org/namespaces/inkscape"
   width="600"
   height="600"
   viewBox="0 0 158.74999 158.75"
   version="1.1"
   id="svg4559"
   inkscape:version="0.92pre3 r"
   sodipodi:docname="shake-up.svg">
  <defs
     id="defs4553" />
  <sodipodi:namedview
     id="base"
     pagecolor="#ffffff"
     bordercolor="#666666"
     borderopacity="1.0"
     inkscape:pageopacity="0.0"
     inkscape:pageshadow="2"
     inkscape:zoom="0.24748737"
     inkscape:cx="426.77211"
     inkscape:cy="571.07959"
     inkscape:document-units="mm"
     inkscape:current-layer="layer1"
     showgrid="false"
     units="px"
     inkscape:window-width="1255"
     inkscape:window-height="976"
     inkscape:window-x="2585"
     inkscape:window-y="27"
     inkscape:window-maximized="0" />
  <metadata
     id="metadata4556">
    <rdf:RDF>
      <cc:Work
         rdf:about="">
        <dc:format>image/svg+xml</dc:format>
        <dc:type
           rdf:resource="http://purl.org/dc/dcmitype/StillImage" />
        <dc:title></dc:title>
      </cc:Work>
    </rdf:RDF>
  </metadata>
  <g
     inkscape:label="Ebene 1"
     inkscape:groupmode="layer"
     id="layer1"
     transform="translate(0,-138.24995)">
    <g
       id="g5759"
       transform="translate(-33.54179,71.72314)">
      <g
         transform="matrix(0.22463916,0.06594097,-0.06594097,0.22463916,292.94554,52.65069)"
         id="layer1-6">
        <path
           sodipodi:nodetypes="cccccccccccccccccccccccccccccccccccccc"
           inkscape:connector-curvature="0"
           id="path3333-7"
           d="m -489.29,802.04 c -0.21135,-22.613 1.8249,-45.063 2.8877,-67.586 2.8663,-16.027 0.15544,-32.743 3.2509,-48.77 0.69205,-15.433 -0.13029,-30.875 -2.8506,-45.895 -1.9644,-14.771 -19.044,-20.321 -27.752,-31.331 -10.279,-13.087 -25.77,-19.078 -38.5,-28.439 -9.8866,-11.28 -34.738,-12.432 -35.874,-28.254 12.82,-14.56 37.112,-9.8808 50.781,1.0237 10.596,5.4997 29.38,16.411 35.526,-0.97187 3.7956,-8.6084 6.0142,-18.38 1.138,-27.141 -4.567,-10.973 -8.019,-23.089 -11.53,-34.796 -4.1094,-11.894 -5.573,-23.601 -9.7193,-35.548 -4.2011,-11.028 -4.3009,-22.83 -4.07,-34.543 11.154,-1.9222 23.113,4.6154 24.294,16.346 4.2892,9.7325 7.0316,19.788 11.706,29.154 4.9185,8.9026 9.2312,19.777 14.725,28.047 -3.3434,-23.798 -0.3578,-48.813 -4.6461,-72.684 -6.7377,-18.638 23.254,-22.396 23.627,-4.5406 3.2136,15.362 2.4956,31.68 7,46.716 5.0251,10.199 -0.22682,32.68 9.9624,35.647 3.6033,-13.898 8.1609,-27.107 11.2,-41.104 5.3592,-11.697 0.2097,-38.055 19.089,-35.532 14.02,7.2398 2.3883,30.534 3.9684,43.977 -2.7745,15.655 -3.334,31.818 -8.1332,46.781 5.4526,9.1619 14.684,-15.128 21.207,-20.467 8.2004,-9.6046 10.895,-22.132 18.781,-30.954 20.511,-6.0282 15.221,20.666 7.44,30.541 -6.1234,13.384 -13.124,26.515 -21.295,39.073 -5.7284,15.138 -6.777,31.901 -9.194,48.062 -3.6883,13.449 -5.628,27.625 -9.7206,40.938 -8.7426,14.176 1.4207,30.031 1.2536,45.238 3.6673,16.6 4.0569,33.925 6.8099,50.554 2.9313,16.462 4.8265,33.164 9.656,48.926 2.5125,12.386 9.487,22.571 9.9377,35.522 2.0617,14.655 2.67397,41.83109 5.21317,56.40709 l -114.78263,34.70123 c 0.1772,-13.917 -1.56637,-75.18032 -1.38909,-89.09732 z" />
      </g>
      <path
         sodipodi:nodetypes="cc"
         inkscape:connector-curvature="0"
         id="path4514"
         d="m 167.36535,170.1802 c 1.79276,-12.60757 6.51447,-22.66372 17.42595,-27.32796"
         style="fill:none;stroke:#000000;stroke-width:1.26423407;stroke-linecap:round;stroke-linejoin:miter;stroke-miterlimit:4;stroke-dasharray:none;stroke-opacity:1" />
      <path
         sodipodi:nodetypes="cc"
         inkscape:connector-curvature="0"
         id="path4516"
         d="m 126.27178,128.84698 c 17.22254,12.08879 13.48689,-2.35551 11.44465,-14.65595"
         style="fill:none;stroke:#000000;stroke-width:1.26423407;stroke-linecap:round;stroke-linejoin:miter;stroke-miterlimit:4;stroke-dasharray:none;stroke-opacity:1" />
      <path
         sodipodi:nodetypes="cc"
         inkscape:connector-curvature="0"
         id="path4518"
         d="m 121.62857,149.14669 c 9.84952,8.31963 17.73481,16.52343 10.33283,23.82577"
         style="fill:none;stroke:#000000;stroke-width:1.26423407;stroke-linecap:round;stroke-linejoin:miter;stroke-miterlimit:4;stroke-dasharray:none;stroke-opacity:1" />
      <rect
         y="71.10096"
         x="38.11594"
         height="149.6017"
         width="149.6017"
         id="rect7128"
         style="opacity:1;fill:none;fill-opacity:1;stroke:#000000;stroke-width:2.11666656;stroke-linecap:round;stroke-linejoin:miter;stroke-miterlimit:4;stroke-dasharray:none;stroke-dashoffset:0;stroke-opacity:1;paint-order:stroke markers fill" />
      <g
         id="g7142"
         transform="matrix(-0.22463916,0.06594097,0.06594097,0.22463916,-66.957615,52.65069)">
        <path
           sodipodi:nodetypes="cccccccccccccccccccccccccccccccccccccc"
           d="m -489.29,802.04 c -0.21135,-22.613 1.8249,-45.063 2.8877,-67.586 2.8663,-16.027 0.15544,-32.743 3.2509,-48.77 0.69205,-15.433 -0.13029,-30.875 -2.8506,-45.895 -1.9644,-14.771 -19.044,-20.321 -27.752,-31.331 -10.279,-13.087 -25.77,-19.078 -38.5,-28.439 -9.8866,-11.28 -34.738,-12.432 -35.874,-28.254 12.82,-14.56 37.112,-9.8808 50.781,1.0237 10.596,5.4997 29.38,16.411 35.526,-0.97187 3.7956,-8.6084 6.0142,-18.38 1.138,-27.141 -4.567,-10.973 -8.019,-23.089 -11.53,-34.796 -4.1094,-11.894 -5.573,-23.601 -9.7193,-35.548 -4.2011,-11.028 -4.3009,-22.83 -4.07,-34.543 11.154,-1.9222 23.113,4.6154 24.294,16.346 4.2892,9.7325 7.0316,19.788 11.706,29.154 4.9185,8.9026 9.2312,19.777 14.725,28.047 -3.3434,-23.798 -0.3578,-48.813 -4.6461,-72.684 -6.7377,-18.638 23.254,-22.396 23.627,-4.5406 3.2136,15.362 2.4956,31.68 7,46.716 5.0251,10.199 -0.22682,32.68 9.9624,35.647 3.6033,-13.898 8.1609,-27.107 11.2,-41.104 5.3592,-11.697 0.2097,-38.055 19.089,-35.532 14.02,7.2398 2.3883,30.534 3.9684,43.977 -2.7745,15.655 -3.334,31.818 -8.1332,46.781 5.4526,9.1619 14.684,-15.128 21.207,-20.467 8.2004,-9.6046 10.895,-22.132 18.781,-30.954 20.511,-6.0282 15.221,20.666 7.44,30.541 -6.1234,13.384 -13.124,26.515 -21.295,39.073 -5.7284,15.138 -6.777,31.901 -9.194,48.062 -3.6883,13.449 -5.628,27.625 -9.7206,40.938 -8.7426,14.176 1.4207,30.031 1.2536,45.238 3.6673,16.6 4.0569,33.925 6.8099,50.554 2.9313,16.462 4.8265,33.164 9.656,48.926 2.5125,12.386 9.487,22.571 9.9377,35.522 2.0617,14.655 6.62965,43.06549 9.16885,57.64149 l -116.07745,30.2902 c 0.1772,-13.917 -4.22723,-72.00369 -4.04995,-85.92069 z"
           id="path7140"
           inkscape:connector-curvature="0" />
      </g>
      <path
         style="fill:none;stroke:#000000;stroke-width:1.26423407;stroke-linecap:round;stroke-linejoin:miter;stroke-miterlimit:4;stroke-dasharray:none;stroke-opacity:1"
         d="M 58.622582,170.1802 C 56.829823,157.57263 52.108109,147.51648 41.19663,142.85224"
         id="path7144"
         inkscape:connector-curvature="0"
         sodipodi:nodetypes="cc" />
      <path
         style="fill:none;stroke:#000000;stroke-width:1.26423407;stroke-linecap:round;stroke-linejoin:miter;stroke-miterlimit:4;stroke-dasharray:none;stroke-opacity:1"
         d="M 99.71614,128.84698 C 82.493607,140.93577 86.229259,126.49147 88.271498,114.19103"
         id="path7146"
         inkscape:connector-curvature="0"
         sodipodi:nodetypes="cc" />
      <path
         style="fill:none;stroke:#000000;stroke-width:1.26423407;stroke-linecap:round;stroke-linejoin:miter;stroke-miterlimit:4;stroke-dasharray:none;stroke-opacity:1"
         d="m 104.35935,149.14669 c -9.849514,8.31963 -17.734796,16.52343 -10.332828,23.82577"
         id="path7148"
         inkscape:connector-curvature="0"
         sodipodi:nodetypes="cc" />
    </g>
  </g>
</svg>
